<svg xmlns="http://www.w3.org/2000/svg" width="40.002" height="36.882" viewBox="0 0 40.002 36.882">
  <g id="Grupo_2127" data-name="Grupo 2127" transform="translate(-327 -267.344)">
    <g id="calendar_1_" data-name="calendar (1)" transform="translate(327 247.377)">
      <path id="Caminho_2343" data-name="Caminho 2343" d="M45.945,98.927H13.114a2.778,2.778,0,0,1-2.778-2.778V69.187a2.778,2.778,0,0,1,2.778-2.778h32.83a2.778,2.778,0,0,1,2.778,2.778V96.149A2.778,2.778,0,0,1,45.945,98.927Z" transform="translate(-9.529 -42.813)" fill="#fff"/>
      <path id="Caminho_2344" data-name="Caminho 2344" d="M48.724,72.158H10.337V68.68a2.27,2.27,0,0,1,2.27-2.27H46.454a2.27,2.27,0,0,1,2.27,2.27v3.478Z" transform="translate(-9.529 -42.814)" fill="#3dd0f2"/>
      <path id="Caminho_2345" data-name="Caminho 2345" d="M57.966,35.014h-.235a.938.938,0,0,1-.938-.938V30.323a.938.938,0,0,1,.938-.938h.235a.938.938,0,0,1,.938.938v3.753A.938.938,0,0,1,57.966,35.014Z" transform="translate(-52.356 -8.682)" fill="#e3896d"/>
      <path id="Caminho_2346" data-name="Caminho 2346" d="M58.9,63.017v0Z" transform="translate(-52.356 -37.74)" fill="#afb9d2"/>
      <path id="Caminho_2347" data-name="Caminho 2347" d="M426.71,35.014h-.235a.938.938,0,0,1-.938-.938V30.323a.938.938,0,0,1,.938-.938h.235a.938.938,0,0,1,.938.938v3.753A.938.938,0,0,1,426.71,35.014Z" transform="translate(-392.29 -8.682)" fill="#e3896d"/>
      <path id="Caminho_2349" data-name="Caminho 2349" d="M39.957,29.3h0l-.006-3.127a3.092,3.092,0,0,0-3.088-3.082h-.671l0-1.29a1.837,1.837,0,0,0-3.675.007l0,1.29-25.1.047,0-1.29a1.837,1.837,0,0,0-3.674.007l0,1.29H3.082A3.1,3.1,0,0,0,0,26.247l.052,27.52A3.091,3.091,0,0,0,3.14,56.849h.006l33.774-.064A3.1,3.1,0,0,0,40,53.692Zm-5.6-8.159a.666.666,0,0,1,.665.663l0,1.874v0l0,1.874a.665.665,0,0,1-.663.666v0a.666.666,0,0,1-.664-.663l-.007-3.753A.665.665,0,0,1,34.353,21.14Zm-29.242.25a.665.665,0,0,1,1.135.468l.007,3.753a.665.665,0,0,1-.663.666v0a.666.666,0,0,1-.665-.663l0-1.875h0l0-1.875A.66.66,0,0,1,5.111,21.39ZM38.269,55.048a1.9,1.9,0,0,1-1.351.566l-33.774.064h0a1.918,1.918,0,0,1-1.915-1.912L1.18,29.958,31.241,29.9a.586.586,0,0,0,0-1.173h0l-30.061.056,0-2.541a1.923,1.923,0,0,1,1.912-1.919h.665l0,1.29a1.84,1.84,0,0,0,1.837,1.834h0a1.839,1.839,0,0,0,1.834-1.841l0-1.29,25.1-.047,0,1.29a1.84,1.84,0,0,0,1.837,1.834h0A1.839,1.839,0,0,0,36.2,25.554l0-1.29h.668a1.918,1.918,0,0,1,1.915,1.912l0,2.541-1.29,0a.586.586,0,0,0,0,1.173h0l1.29,0,.045,23.806A1.9,1.9,0,0,1,38.269,55.048Z" transform="translate(0)"/>
      <path id="Caminho_2350" data-name="Caminho 2350" d="M426.192,132.028h0l-1.251,0a.586.586,0,0,0,0,1.173h0l1.251,0a.586.586,0,0,0,0-1.173Z" transform="translate(-391.2 -103.306)"/>
      <path id="Caminho_2351" data-name="Caminho 2351" d="M240.955,205.6h0l1.251,0a.586.586,0,0,0,0-1.173h0l-1.251,0a.586.586,0,0,0,0,1.173Z" transform="translate(-221.589 -170.044)"/>
      <path id="Caminho_2352" data-name="Caminho 2352" d="M241.03,245.622h0l1.251,0a.586.586,0,0,0,0-1.173h0l-1.251,0a.586.586,0,0,0,0,1.173Z" transform="translate(-221.658 -206.941)"/>
      <path id="Caminho_2353" data-name="Caminho 2353" d="M241.105,285.649h0l1.251,0a.586.586,0,0,0,0-1.173h0l-1.251,0a.586.586,0,0,0,0,1.173Z" transform="translate(-221.727 -243.841)"/>
      <path id="Caminho_2354" data-name="Caminho 2354" d="M241.18,325.675h0l1.251,0a.586.586,0,0,0,0-1.173h0l-1.251,0a.586.586,0,0,0,0,1.173Z" transform="translate(-221.796 -280.74)"/>
      <path id="Caminho_2355" data-name="Caminho 2355" d="M241.255,365.7h0l1.251,0a.586.586,0,0,0,0-1.173h0l-1.251,0a.586.586,0,0,0,0,1.173Z" transform="translate(-221.866 -317.64)"/>
      <path id="Caminho_2356" data-name="Caminho 2356" d="M242.581,404.553h0l-1.251,0a.586.586,0,0,0,0,1.173h0l1.251,0a.586.586,0,0,0,0-1.173Z" transform="translate(-221.935 -354.538)"/>
      <path id="Caminho_2357" data-name="Caminho 2357" d="M296.992,205.491h0l1.251,0a.586.586,0,0,0,0-1.173h0l-1.251,0a.586.586,0,0,0,0,1.173Z" transform="translate(-273.248 -169.946)"/>
      <path id="Caminho_2358" data-name="Caminho 2358" d="M297.067,245.517h0l1.251,0a.586.586,0,0,0,0-1.173h0l-1.251,0a.586.586,0,0,0,0,1.173Z" transform="translate(-273.317 -206.845)"/>
      <path id="Caminho_2359" data-name="Caminho 2359" d="M297.142,285.544h0l1.251,0a.586.586,0,0,0,0-1.173h0l-1.251,0a.586.586,0,0,0,0,1.173Z" transform="translate(-273.386 -243.744)"/>
      <path id="Caminho_2360" data-name="Caminho 2360" d="M297.217,325.57h0l1.251,0a.586.586,0,0,0,0-1.173h0l-1.251,0a.586.586,0,0,0,0,1.173Z" transform="translate(-273.455 -280.643)"/>
      <path id="Caminho_2361" data-name="Caminho 2361" d="M297.293,365.6h0l1.251,0a.586.586,0,0,0,0-1.173h0l-1.251,0a.586.586,0,0,0,0,1.173Z" transform="translate(-273.525 -317.543)"/>
      <path id="Caminho_2362" data-name="Caminho 2362" d="M298.618,404.448h0l-1.251,0a.586.586,0,0,0,0,1.173h0l1.251,0a.586.586,0,0,0,0-1.173Z" transform="translate(-273.594 -354.442)"/>
      <path id="Caminho_2363" data-name="Caminho 2363" d="M184.918,205.7h0l1.251,0a.586.586,0,0,0,0-1.173h0l-1.251,0a.586.586,0,0,0,0,1.173Z" transform="translate(-169.93 -170.14)"/>
      <path id="Caminho_2364" data-name="Caminho 2364" d="M184.993,245.728h0l1.251,0a.586.586,0,0,0,0-1.173h0l-1.251,0a.586.586,0,0,0,0,1.173Z" transform="translate(-169.999 -207.039)"/>
      <path id="Caminho_2365" data-name="Caminho 2365" d="M185.068,285.755h0l1.251,0a.586.586,0,0,0,0-1.173h0l-1.251,0a.586.586,0,0,0,0,1.173Z" transform="translate(-170.068 -243.939)"/>
      <path id="Caminho_2366" data-name="Caminho 2366" d="M185.143,325.781h0l1.251,0a.586.586,0,0,0,0-1.173h0l-1.251,0a.586.586,0,0,0,0,1.173Z" transform="translate(-170.138 -280.838)"/>
      <path id="Caminho_2367" data-name="Caminho 2367" d="M185.218,365.808h0l1.251,0a.586.586,0,0,0,0-1.173h0l-1.251,0a.586.586,0,0,0,0,1.173Z" transform="translate(-170.207 -317.737)"/>
      <path id="Caminho_2368" data-name="Caminho 2368" d="M186.545,404.659h0l-1.251,0a.586.586,0,0,0,0,1.173h0l1.251,0a.586.586,0,0,0,0-1.173Z" transform="translate(-170.277 -354.636)"/>
      <path id="Caminho_2369" data-name="Caminho 2369" d="M128.881,205.807h0l1.251,0a.586.586,0,0,0,0-1.173h0l-1.251,0a.586.586,0,0,0,0,1.173Z" transform="translate(-118.271 -170.237)"/>
      <path id="Caminho_2370" data-name="Caminho 2370" d="M128.956,245.834h0l1.251,0a.586.586,0,0,0,0-1.173h0l-1.251,0a.586.586,0,0,0,0,1.173Z" transform="translate(-118.34 -207.137)"/>
      <path id="Caminho_2371" data-name="Caminho 2371" d="M129.031,285.86h0l1.251,0a.586.586,0,0,0,0-1.173h0l-1.251,0a.586.586,0,0,0,0,1.173Z" transform="translate(-118.41 -244.036)"/>
      <path id="Caminho_2372" data-name="Caminho 2372" d="M129.107,325.887h0l1.251,0a.586.586,0,0,0,0-1.173h0l-1.251,0a.586.586,0,0,0,0,1.173Z" transform="translate(-118.48 -280.935)"/>
      <path id="Caminho_2373" data-name="Caminho 2373" d="M129.182,365.913h0l1.251,0a.586.586,0,0,0,0-1.173h0l-1.251,0a.586.586,0,0,0,0,1.173Z" transform="translate(-118.549 -317.834)"/>
      <path id="Caminho_2374" data-name="Caminho 2374" d="M130.508,404.764h0l-1.251,0a.586.586,0,0,0,0,1.173h0l1.251,0a.586.586,0,0,0,0-1.173Z" transform="translate(-118.618 -354.733)"/>
      <path id="Caminho_2375" data-name="Caminho 2375" d="M353.029,205.386h0l1.251,0a.586.586,0,0,0,0-1.173h0l-1.251,0a.586.586,0,0,0,0,1.173Z" transform="translate(-324.907 -169.849)"/>
      <path id="Caminho_2376" data-name="Caminho 2376" d="M353.1,245.412h0l1.251,0a.586.586,0,0,0,0-1.173h0l-1.251,0a.586.586,0,0,0,0,1.173Z" transform="translate(-324.976 -206.748)"/>
      <path id="Caminho_2377" data-name="Caminho 2377" d="M353.179,285.439h0l1.251,0a.586.586,0,0,0,0-1.173h0l-1.251,0a.586.586,0,0,0,0,1.173Z" transform="translate(-325.045 -243.647)"/>
      <path id="Caminho_2378" data-name="Caminho 2378" d="M353.255,325.465h0l1.251,0a.586.586,0,0,0,0-1.173h0l-1.251,0a.586.586,0,0,0,0,1.173Z" transform="translate(-325.115 -280.546)"/>
      <path id="Caminho_2379" data-name="Caminho 2379" d="M353.331,365.492h0l1.251,0a.586.586,0,1,0,0-1.173l-1.251,0a.586.586,0,0,0,0,1.173Z" transform="translate(-325.185 -317.446)"/>
      <path id="Caminho_2380" data-name="Caminho 2380" d="M354.655,404.343h0l-1.251,0a.586.586,0,0,0,0,1.173h0l1.251,0a.586.586,0,0,0,0-1.173Z" transform="translate(-325.252 -354.345)"/>
      <path id="Caminho_2381" data-name="Caminho 2381" d="M409.067,205.281h0l1.251,0a.586.586,0,0,0,0-1.173h0l-1.251,0a.586.586,0,0,0,0,1.173Z" transform="translate(-376.566 -169.752)"/>
      <path id="Caminho_2382" data-name="Caminho 2382" d="M409.142,245.307h0l1.251,0a.586.586,0,0,0,0-1.173h0l-1.251,0a.586.586,0,0,0,0,1.173Z" transform="translate(-376.636 -206.651)"/>
      <path id="Caminho_2383" data-name="Caminho 2383" d="M409.217,285.334h0l1.251,0a.586.586,0,0,0,0-1.173h0l-1.251,0a.586.586,0,0,0,0,1.173Z" transform="translate(-376.705 -243.551)"/>
      <path id="Caminho_2384" data-name="Caminho 2384" d="M409.292,325.359h0l1.251,0a.586.586,0,0,0,0-1.173h0l-1.251,0a.586.586,0,0,0,0,1.173Z" transform="translate(-376.774 -280.449)"/>
      <path id="Caminho_2385" data-name="Caminho 2385" d="M409.367,365.386h0l1.251,0a.586.586,0,0,0,0-1.173h0l-1.251,0a.586.586,0,0,0,0,1.173Z" transform="translate(-376.843 -317.348)"/>
      <path id="Caminho_2386" data-name="Caminho 2386" d="M410.692,404.238h0l-1.251,0a.586.586,0,0,0,0,1.173h0l1.251,0a.586.586,0,0,0,0-1.173Z" transform="translate(-376.911 -354.248)"/>
      <path id="Caminho_2387" data-name="Caminho 2387" d="M72.844,205.912h0l1.251,0a.586.586,0,0,0,0-1.173h0l-1.251,0a.586.586,0,0,0,0,1.173Z" transform="translate(-66.613 -170.334)"/>
      <path id="Caminho_2388" data-name="Caminho 2388" d="M72.919,245.939h0l1.251,0a.586.586,0,0,0,0-1.173h0l-1.251,0a.586.586,0,0,0,0,1.173Z" transform="translate(-66.682 -207.234)"/>
      <path id="Caminho_2389" data-name="Caminho 2389" d="M72.994,285.965h0l1.251,0a.586.586,0,0,0,0-1.173h0l-1.251,0a.586.586,0,0,0,0,1.173Z" transform="translate(-66.751 -244.132)"/>
      <path id="Caminho_2390" data-name="Caminho 2390" d="M73.07,325.992h0l1.251,0a.586.586,0,0,0,0-1.173h0l-1.251,0a.586.586,0,0,0,0,1.173Z" transform="translate(-66.821 -281.032)"/>
      <path id="Caminho_2391" data-name="Caminho 2391" d="M73.145,366.018h0l1.251,0a.586.586,0,0,0,0-1.173h0l-1.251,0a.586.586,0,0,0,0,1.173Z" transform="translate(-66.89 -317.931)"/>
      <path id="Caminho_2392" data-name="Caminho 2392" d="M74.471,404.87h0l-1.251,0a.586.586,0,0,0,0,1.173h0l1.251,0a.586.586,0,0,0,0-1.173Z" transform="translate(-66.959 -354.831)"/>
    </g>
  </g>
</svg>
