<svg id="Group_1072" data-name="Group 1072" xmlns="http://www.w3.org/2000/svg" viewBox="0 0 50 50">
  <defs>
    <style>
      .cls-1 {
        fill: #090909;
      }
    </style>
  </defs>
  <g id="Group_1071" data-name="Group 1071" transform="translate(11.909)">
    <path id="Path_1418" data-name="Path 1418" class="cls-1" d="M37.592,0h-24.8A.678.678,0,0,0,12.1.7V49.3a.678.678,0,0,0,.689.7h24.8a.678.678,0,0,0,.689-.7V.7A.834.834,0,0,0,37.592,0ZM24.5,48.6H18.1V42.216h6.4Zm7.677,0h-6.4V42.216h6.4ZM36.9,5.888V48.5H33.557V41.417a.678.678,0,0,0-.689-.7H17.513a.678.678,0,0,0-.689.7V48.5H13.478V1.3H36.9V5.888Z" transform="translate(-12.1)"/>
    <path id="Path_1419" data-name="Path 1419" class="cls-1" d="M22.315,4.8H17.689A.678.678,0,0,0,17,5.5v4.691a.678.678,0,0,0,.689.7h4.626a.678.678,0,0,0,.689-.7V5.5A.834.834,0,0,0,22.315,4.8Zm-.689,4.691H18.28V6.2h3.346Z" transform="translate(-12.177 -0.01)"/>
    <path id="Path_1420" data-name="Path 1420" class="cls-1" d="M22.315,14.3H17.689A.678.678,0,0,0,17,15v4.691a.678.678,0,0,0,.689.7h4.626a.678.678,0,0,0,.689-.7V15A.834.834,0,0,0,22.315,14.3Zm-.689,4.691H18.28V15.6h3.346Z" transform="translate(-12.177 -0.029)"/>
    <path id="Path_1421" data-name="Path 1421" class="cls-1" d="M22.315,23.9H17.689a.678.678,0,0,0-.689.7v4.691a.678.678,0,0,0,.689.7h4.626a.678.678,0,0,0,.689-.7V24.6A.834.834,0,0,0,22.315,23.9Zm-.689,4.691H18.28V25.2h3.346Z" transform="translate(-12.177 -0.048)"/>
    <path id="Path_1422" data-name="Path 1422" class="cls-1" d="M22.315,33.4H17.689a.678.678,0,0,0-.689.7v4.691a.678.678,0,0,0,.689.7h4.626a.678.678,0,0,0,.689-.7V34.1A.834.834,0,0,0,22.315,33.4Zm-.689,4.691H18.28V34.7h3.346Z" transform="translate(-12.177 -0.067)"/>
    <path id="Path_1423" data-name="Path 1423" class="cls-1" d="M33.015,4.8H28.389a.678.678,0,0,0-.689.7v4.691a.678.678,0,0,0,.689.7h4.626a.678.678,0,0,0,.689-.7V5.5A.678.678,0,0,0,33.015,4.8Zm-.591,4.691H29.078V6.2h3.346Z" transform="translate(-12.346 -0.01)"/>
    <path id="Path_1424" data-name="Path 1424" class="cls-1" d="M33.015,14.3H28.389a.678.678,0,0,0-.689.7v4.691a.678.678,0,0,0,.689.7h4.626a.678.678,0,0,0,.689-.7V15A.678.678,0,0,0,33.015,14.3Zm-.591,4.691H29.078V15.6h3.346Z" transform="translate(-12.346 -0.029)"/>
    <path id="Path_1425" data-name="Path 1425" class="cls-1" d="M33.015,23.9H28.389a.678.678,0,0,0-.689.7v4.691a.678.678,0,0,0,.689.7h4.626a.678.678,0,0,0,.689-.7V24.6A.678.678,0,0,0,33.015,23.9Zm-.591,4.691H29.078V25.2h3.346Z" transform="translate(-12.346 -0.048)"/>
    <path id="Path_1426" data-name="Path 1426" class="cls-1" d="M33.015,33.4H28.389a.678.678,0,0,0-.689.7v4.691a.678.678,0,0,0,.689.7h4.626a.678.678,0,0,0,.689-.7V34.1A.678.678,0,0,0,33.015,33.4Zm-.591,4.691H29.078V34.7h3.346Z" transform="translate(-12.346 -0.067)"/>
  </g>
  <path id="Path_1427" data-name="Path 1427" class="cls-1" d="M4.491,12.39a.572.572,0,0,1-.591-.6V8a.571.571,0,0,1,.591-.6h3.74A.556.556,0,0,1,8.92,8v3.792a.571.571,0,0,1-.591.6H4.491Zm3.15-1.3V8.6H5.18v2.5Z" transform="translate(-0.061 -0.015)"/>
  <path id="Path_1428" data-name="Path 1428" class="cls-1" d="M4.491,20.09a.572.572,0,0,1-.591-.6V15.7a.571.571,0,0,1,.591-.6h3.74a.556.556,0,0,1,.689.6v3.792a.571.571,0,0,1-.591.6Zm3.15-1.2V16.4H5.18v2.5Z" transform="translate(-0.061 -0.03)"/>
  <path id="Path_1429" data-name="Path 1429" class="cls-1" d="M4.491,27.89a.572.572,0,0,1-.591-.6V23.5a.571.571,0,0,1,.591-.6h3.74a.5.5,0,0,1,.689.5v3.792a.571.571,0,0,1-.591.6H4.491Zm3.15-1.3V24H5.18v2.5H7.64Z" transform="translate(-0.061 -0.046)"/>
  <path id="Path_1430" data-name="Path 1430" class="cls-1" d="M4.491,35.59a.572.572,0,0,1-.591-.6V31.2a.571.571,0,0,1,.591-.6h3.74a.572.572,0,0,1,.591.6v3.792a.571.571,0,0,1-.591.6Zm3.15-1.3V31.8H5.18v2.5Z" transform="translate(-0.061 -0.061)"/>
  <path id="Path_1431" data-name="Path 1431" class="cls-1" d="M0,4.1V43.42a.571.571,0,0,0,.591.6h9.35v-1.3H5.02v-4.99H9.941v-1.3H4.429a.572.572,0,0,0-.591.6v5.589H1.28V4.7h8.76V3.4H.591A.664.664,0,0,0,0,4.1Z" transform="translate(0 -0.007)"/>
  <path id="Path_1432" data-name="Path 1432" class="cls-1" d="M42.391,12.19a.572.572,0,0,1-.591-.6V7.7a.571.571,0,0,1,.591-.6h3.74a.572.572,0,0,1,.591.6v3.792a.571.571,0,0,1-.591.6h-3.74Zm3.15-1.3V8.4H43.08v2.5Z" transform="translate(-0.658 -0.014)"/>
  <path id="Path_1433" data-name="Path 1433" class="cls-1" d="M42.391,19.89a.572.572,0,0,1-.591-.6V15.5a.571.571,0,0,1,.591-.6h3.74a.572.572,0,0,1,.591.6v3.792a.571.571,0,0,1-.591.6Zm3.15-1.3V16.1H43.08v2.5Z" transform="translate(-0.658 -0.03)"/>
  <path id="Path_1434" data-name="Path 1434" class="cls-1" d="M42.391,27.59a.572.572,0,0,1-.591-.6V23.2a.571.571,0,0,1,.591-.6h3.74a.572.572,0,0,1,.591.6v3.792a.571.571,0,0,1-.591.6Zm3.15-1.3V23.8H43.08v2.5Z" transform="translate(-0.658 -0.045)"/>
  <path id="Path_1435" data-name="Path 1435" class="cls-1" d="M42.391,35.29a.572.572,0,0,1-.591-.6V30.9a.571.571,0,0,1,.591-.6h3.74a.572.572,0,0,1,.591.6v3.792a.571.571,0,0,1-.591.6Zm3.15-1.3V31.5H43.08v2.5Z" transform="translate(-0.658 -0.06)"/>
  <path id="Path_1436" data-name="Path 1436" class="cls-1" d="M50.641,3.8V43.12a.571.571,0,0,1-.591.6H40.7v-1.3h4.921v-4.99H40.7v-1.3h5.61a.572.572,0,0,1,.591.6v5.589H49.46V4.5H40.7V3.2h9.35A.64.64,0,0,1,50.641,3.8Z" transform="translate(-0.641 -0.006)"/>
</svg>
