<svg xmlns="http://www.w3.org/2000/svg" width="25.035" height="25.487" viewBox="0 0 25.035 25.487">
  <g id="Grupo_1475" data-name="Grupo 1475" transform="translate(-500.506 -1376.156) rotate(45)">
    <path id="Caminho_622" data-name="Caminho 622" d="M30,0H0" transform="translate(1345.227 634.495) rotate(-90)" fill="none" stroke="#525257" stroke-linecap="round" stroke-width="2.5"/>
    <path id="Caminho_2102" data-name="Caminho 2102" d="M30,0H0" transform="translate(1329.5 619.179)" fill="none" stroke="#525257" stroke-linecap="round" stroke-width="2.5"/>
  </g>
</svg>
