<svg xmlns="http://www.w3.org/2000/svg" width="50" height="50" viewBox="0 0 50 50">
  <g id="Grupo_1823" data-name="Grupo 1823" transform="translate(-666 -3235)">
    <circle id="Elipse_86" data-name="Elipse 86" cx="25" cy="25" r="25" transform="translate(666 3235)" fill="#fff"/>
    <g id="Grupo_877" data-name="Grupo 877" transform="translate(680 3249)">
      <path id="Caminho_1045" data-name="Caminho 1045" d="M17.589,0H4.422A4.4,4.4,0,0,0,0,4.422V17.589a4.4,4.4,0,0,0,4.422,4.422H17.589a4.4,4.4,0,0,0,4.422-4.422V4.422A4.429,4.429,0,0,0,17.589,0ZM11.006,19.046a8.041,8.041,0,1,1,8.041-8.041A8.064,8.064,0,0,1,11.006,19.046ZM18.9,4.473a1.33,1.33,0,0,1-1.307-1.307,1.307,1.307,0,1,1,2.613,0A1.33,1.33,0,0,1,18.9,4.473Z" fill="#39393d" fill-rule="evenodd"/>
      <path id="Caminho_1046" data-name="Caminho 1046" d="M15.582,9.2a6.382,6.382,0,1,0,6.382,6.382A6.391,6.391,0,0,0,15.582,9.2Z" transform="translate(-4.577 -4.577)" fill="#39393d" fill-rule="evenodd"/>
    </g>
  </g>
</svg>
