<svg xmlns="http://www.w3.org/2000/svg" width="39.897" height="39.898" viewBox="0 0 39.897 39.898">
  <g id="Grupo_2126" data-name="Grupo 2126" transform="translate(-327 -329.834)">
    <g id="Grupo_2087" data-name="Grupo 2087" transform="translate(768 1162.734)">
      <circle id="Elipse_101" data-name="Elipse 101" cx="12" cy="12" r="12" transform="translate(-438 -830)" fill="#fff"/>
      <path id="Caminho_2229" data-name="Caminho 2229" d="M38.946,34.321a3.268,3.268,0,0,1-4.621,4.621L24.8,29.415a.785.785,0,0,1,0-1.112l.381-.381-.935-.935a15.058,15.058,0,1,1,2.747-2.745l.934.934.381-.381a.787.787,0,0,1,1.114,0Zm-1.113,3.509a1.7,1.7,0,0,0,0-2.395l-8.969-8.97-2.395,2.395,8.969,8.97A1.7,1.7,0,0,0,37.833,37.829ZM28.544,15.053A13.486,13.486,0,0,0,5.521,5.517,13.486,13.486,0,1,0,24.594,24.589,13.4,13.4,0,0,0,28.544,15.053Zm-2.25,11.756.52-.52-.85-.85c-.084.089-.17.176-.256.263s-.175.172-.263.256Z" transform="translate(-441.005 -832.9)"/>
      <path id="Caminho_2230" data-name="Caminho 2230" d="M263.532,261.133a1.693,1.693,0,0,1-2.395,2.395l-8.969-8.97,2.395-2.395Z" transform="translate(-666.703 -1058.598)" fill="#3dd0f2"/>
      <path id="Caminho_2231" data-name="Caminho 2231" d="M37.96,18.882a13.486,13.486,0,1,1-9.536-3.95A13.4,13.4,0,0,1,37.96,18.882Zm2.29,9.536a11.826,11.826,0,1,0-3.464,8.362A11.752,11.752,0,0,0,40.25,28.418Z" transform="translate(-454.371 -846.265)" fill="#f48c6c"/>
      <path id="Caminho_2232" data-name="Caminho 2232" d="M243.767,243.242l-.52.52-.85-.85c.088-.084.176-.169.263-.256s.172-.174.256-.263Z" transform="translate(-657.958 -1049.853)" fill="#f48c6c"/>
      <path id="Caminho_2233" data-name="Caminho 2233" d="M50.944,34.215a11.826,11.826,0,1,1-8.361-3.463A11.752,11.752,0,0,1,50.944,34.215ZM49.832,49.827a10.251,10.251,0,1,0-7.249,3A10.264,10.264,0,0,0,49.832,49.827Z" transform="translate(-468.53 -860.425)"/>
      <path id="Caminho_2234" data-name="Caminho 2234" d="M180.576,68.691a.787.787,0,1,1-1.114,1.112,7.656,7.656,0,0,0-1.439-1.131.787.787,0,1,1,.819-1.345A9.311,9.311,0,0,1,180.576,68.691Z" transform="translate(-600.002 -893.058)"/>
      <path id="Caminho_2235" data-name="Caminho 2235" d="M134.722,193a.786.786,0,0,1,0,1.112,9.165,9.165,0,0,1-6.506,2.7,9.368,9.368,0,0,1-1.107-.066.787.787,0,1,1,.186-1.563A7.61,7.61,0,0,0,133.608,193,.788.788,0,0,1,134.722,193Z" transform="translate(-554.148 -1005.435)"/>
      <path id="Caminho_2236" data-name="Caminho 2236" d="M87.278,55.683a.787.787,0,1,1-.242,1.555,7.68,7.68,0,0,0-6.591,2.148.787.787,0,1,1-1.114-1.112A9.26,9.26,0,0,1,87.278,55.683Z" transform="translate(-511.799 -882.642)"/>
      <path id="Caminho_2237" data-name="Caminho 2237" d="M81.812,194.082a.787.787,0,0,1-.833,1.336,9.275,9.275,0,0,1-1.648-1.311A.787.787,0,0,1,80.445,193,7.673,7.673,0,0,0,81.812,194.082Z" transform="translate(-511.799 -1005.434)"/>
    </g>
  </g>
</svg>
