<svg xmlns="http://www.w3.org/2000/svg" viewBox="0 0 20 15">
  <defs>
    <style>
      .cls-1 {
        fill: #fff;
        fill-rule: evenodd;
      }
    </style>
  </defs>
  <path id="Path_619" data-name="Path 619" class="cls-1" d="M510.136,133.111a4.868,4.868,0,0,0-.792-2.114,2.686,2.686,0,0,0-1.98-.894c-2.811-.2-7.008-.2-7.008-.2h-.04s-4.2,0-7.008.2a2.873,2.873,0,0,0-2.019.894,4.867,4.867,0,0,0-.792,2.114s-.2,1.748-.2,3.455v1.626a34.232,34.232,0,0,0,.2,3.455,5.146,5.146,0,0,0,.792,2.154,3.14,3.14,0,0,0,2.217.894c1.584.163,6.81.2,6.81.2s4.2-.041,7.008-.2a2.633,2.633,0,0,0,1.98-.894,4.972,4.972,0,0,0,.792-2.154,34.243,34.243,0,0,0,.2-3.455v-1.667a28.293,28.293,0,0,0-.158-3.415Zm-6.493,4.024-5.424,3.008v-6.057l2.455,1.382Z" transform="translate(-490.3 -129.9)"/>
</svg>
